[
  {
    "id": "p1",
    "title": "quiz app",
    "techno": "node js",
    "launch date": "12/12/2021",
    "status": " in progress",
    "tasks": ["task1", "task2", "task3"]
  },
  {
    "id": "p2",
    "title": "chat app",
    "techno": "Laravel",
    "launch date": "12/01/2022",
    "status": " to do"
  },
  {
    "id": "p3",
    "title": "notif app",
    "techno": "Rust",
    "launch date": "12/05/2021",
    "status": "done",
    "tasks": ["task11", "task12", "task13"]
  }
]
